# GRUB2 gfxmenu Linux theme
# Designed for any resolution

# Global Property
title-text: ""
desktop-image: "background.png"
desktop-color: "#000000"
terminal-font: "Terminus Regular 14"
terminal-box: "terminal_box_*.png"
terminal-left: "0"
terminal-top: "0"
terminal-width: "100%"
terminal-height: "100%"
terminal-border: "0"

# Show the boot menu
+ boot_menu {
  left = 30%
  top = 30%
  width = 45%
  height = 60%
  item_font = "DejaVu Sans Regular 16"
  item_color = "#cccccc"
  selected_item_color = "#ffffff"
  icon_width = 64
  icon_height = 64
  item_icon_space = 36
  item_height = 80
  item_padding = 12
  item_spacing = 24
  selected_item_pixmap_style = "select_*.png"
}

#+ image {
#  top = 90%
#  left = 50%-360
#  width = 720
#  height = 63
#  file = "info.png"
#}

# Show a countdown message using the label component
+ label {
  top = 82%
  left = 32%
  width = 30%
  align = "center"
  id = "__timeout__"
  text = "Booting in %d seconds"
  color = "#cccccc"
  font = "DejaVu Sans Regular 32"
}
